#include<stdio.h>
#include<string.h>
char anagram(char *,char *);
main()
{
char a[20],b[20];
printf("enter the string1\n");
gets(a);
printf("enter the string2\n");
gets(b);
anagram(a,b);
}
char anagram(char *a,char *b)
{
int l,m,n,flag=0;
for(l=0;l<=(strlen(a)-1);l++)
{
n=0;
for(m=0;m<=(strlen(b)-1);m++)
{
  if(*(a+l)==*(b+m))
  {
     continue;
   }

  if(*(a+l)!=*(b+m))
  {
     n++;
   }
}
if (n == (strlen (b) - 1))
  {
      flag=1;
        break;
    }
}
if(flag)
{
 printf("given strings are anagrams");
}
else
{
printf("given strings are not anagrams");
}
}