#include<stdio.h>
#include<string.h>
main()
{
int a,b,c,i=0,j=0,k;
char str1[50],str2[10];
printf("enter the string :\n");
gets(str1);
printf("enter the string u want to search :\n");
gets(str2);
b=strlen(str1);
c=strlen(str2);
for(i=0;i<b;i++)
{    a=0;
 for(j=0;j<c;j++)
  {  
     if(str1[i]==str2[j])
     {
    i++;a++;
      }
    }
  // i++;
 }
printf("a=%d c=%d \n",a,c);
if(a==c)
{
 printf("given string is a sub string of entered string");
}
else
{
printf("given string is not a sub string");
}
}